LC-MS data – JinYoung_Park
…
# generate reciepe
pca_recipe <- recipe(~ ., data = plaDataWide) %>%
  update_role(sampleId, organism, time, new_role = "id")

summary(pca_recipe)

# A tibble: 500 × 4
   variable                type      role      source  
   <chr>                   <list>    <chr>     <chr>   
 1 sampleId                <chr [3]> id        original
 2 organism                <chr [3]> id        original
 3 time                    <chr [3]> id        original
 4 Lys-Gly                 <chr [2]> predictor original
 5 Indolelactic acid       <chr [2]> predictor original
 6 4-Methylene-glutamine   <chr [2]> predictor original
 7 LysoPC(20:0)            <chr [2]> predictor original
 8 PE(38:3)                <chr [2]> predictor original
 9 N-Acetylneuraminic acid <chr [2]> predictor original
10 Glycerol 3-phosphate    <chr [2]> predictor original
# ℹ 490 more rows
…
Take a look individual compound

planStats %>% 
  group_by(compound) %>% 
  arrange(p.adj)

# A tibble: 1,491 × 7
# Groups:   compound [497]
   compound                 term    estimate std.error statistic p.value   p.adj
   <chr>                    <chr>      <dbl>     <dbl>     <dbl>   <dbl>   <dbl>
 1 Guaiacol sulfate         time48h     5.46     0.278     19.7  4.66e-8 6.95e-5
 2 Guaiacol sulfate         time24h     4.25     0.278     15.3  3.29e-7 2.45e-4
 3 Tyrosol 4-sulfate        time48h     5.24     0.426     12.3  1.78e-6 8.86e-4
 4 Tyrosol 4-sulfate        time24h     4.03     0.426      9.46 1.28e-5 4.78e-3
 5 dGDP                     time48h    -2.94     0.339     -8.66 2.46e-5 5.18e-3
 6 ADP                      time48h    -2.94     0.339     -8.66 2.46e-5 5.18e-3
 7 Hydroxymethylphosphonate time48h    -1.35     0.159     -8.51 2.78e-5 5.18e-3
 8 Acetylphosphate          time48h    -1.75     0.205     -8.54 2.71e-5 5.18e-3
 9 Sedoheptulose            time48h     1.19     0.149      8.04 4.23e-5 6.30e-3
10 Phosphoglycolic acid     time48h    -1.90     0.234     -8.12 3.93e-5 6.30e-3
# ℹ 1,481 more rows
…
